<?xml version="1.0" encoding="UTF-8"?>
<session version="1.0">
<refactoring accessors="true" comment="Delete element from project &apos;ExchangeAutomation&apos;&#x0A;- Original project: &apos;ExchangeAutomation&apos;&#x0A;- Original element: &apos;admin.IntegratingAllTestCases.java&apos;" description="Delete element" element1="/src\/main\/java&lt;admin{IntegratingAllTestCases.java" elements="1" flags="589830" id="org.eclipse.jdt.ui.delete" resources="0" stamp="1582876212824" subPackages="false" version="1.0"/>
</session>